{
  "name": "cost-usage-analytics-function",
  "runtime": "python2.7",
  "description": "Serverless Lambda function for project: aws-cost-usage-analytics-pipeline",
  "customName": "aws-cost-usage-analytics",
  "customRole": false,
  "handler": "handler.handler",
  "timeout": 120,
  "memorySize": 128,
  "authorizer": {},
  "custom": {
    "excludePatterns": []
  },
  "endpoints": [],
  "events": [
    {
      "name": "schedule",
      "type": "schedule",
      "config": {
        "schedule": "cron(15 12 * * ? *)",
        "enabled": true
      }
    }
  ],
  "environment": {
    "iamRoleArnLambda": "${iamRoleArnLambda}",
    "analyticsS3Bucket": "${analyticsS3Bucket}",
    "analyticsSecurityGroup": "${analyticsSecurityGroup}",
    "analyticsVPC": "${analyticsVPC}",
    "analyticsVPCIPRange": "${analyticsVPCIPRange}",
    "analyticsVPCSubnet": "${analyticsVPCSubnet}",
    "billingFilesS3Bucket": "${billingFilesS3Bucket}",
    "billingReportName": "${billingReportName}",
    "billingReportPrefix": "${billingReportPrefix}",
    "costAnalyticsSNS": "${costAnalyticsSNS}",
    "createAnalyticsVPC": "${createAnalyticsVPC}",
    "crossAccountRoleName": "${crossAccountRoleName}",
    "dataPipelineEC2InstanceSize": "${dataPipelineEC2InstanceSize}",
    "dataPipelineEC2InstanceSpotBidPrice": "${dataPipelineEC2InstanceSpotBidPrice}",
    "dataPipelineEC2InstanceTerminateAfter": "${dataPipelineEC2InstanceTerminateAfter}",
    "dataPipelineEMRCoreInstanceCount": "${dataPipelineEMRCoreInstanceCount}",
    "dataPipelineEMRCoreInstanceSize": "${dataPipelineEMRCoreInstanceSize}",
    "dataPipelineEMRCoreInstanceSpotBidPrice": "${dataPipelineEMRCoreInstanceSpotBidPrice}",
    "dataPipelineEMREC2Role": "${dataPipelineEMREC2Role}",
    "dataPipelineEMREC2RoleInstanceProfile": "${dataPipelineEMREC2RoleInstanceProfile}",
    "dataPipelineEMRMasterInstanceSize": "${dataPipelineEMRMasterInstanceSize}",
    "dataPipelineEMRRole": "${dataPipelineEMRRole}",
    "dataPipelineEMRTerminateAfter": "${dataPipelineEMRTerminateAfter}",
    "dataPipelineName": "${dataPipelineName}",
    "project": "${project}",
    "region": "${region}",
    "resourcesStackName": "${resourcesStackName}",
    "stage": "${stage}",
    "cloudWatchRetention": "${cloudWatchRetention}",
    "dryRun": "${dryRun}",
    "costReportOutputSchema": "${costReportOutputSchema}",
    "pipelineTags": "${pipelineTags}"
  },
  "vpc": {
    "securityGroupIds": [],
    "subnetIds": []
  }
}